<?xml version="1.0" encoding="utf-8"?>
<!-- Generator: Adobe Illustrator 23.0.0, SVG Export Plug-In . SVG Version: 6.00 Build 0)  -->
<svg version="1.1" id="Layer_1" xmlns="http://www.w3.org/2000/svg" xmlns:xlink="http://www.w3.org/1999/xlink" x="0px" y="0px"
	 viewBox="0 0 512 512" style="enable-background:new 0 0 512 512;" xml:space="preserve">
<style type="text/css">
	.st0{fill:#FFFFFF;}
</style>
<path class="st0" d="M256,492.3c-63.1,0-122.4-24.6-167.1-69.2S19.7,319.1,19.7,256c0-63.1,24.6-122.4,69.2-167.1
	s104-69.2,167.1-69.2c63.1,0,122.4,24.6,167.1,69.2c44.6,44.6,69.2,104,69.2,167.1c0,63.1-24.6,122.4-69.2,167.1
	C378.4,467.7,319.1,492.3,256,492.3z M256,36.7C135.1,36.7,36.7,135.1,36.7,256c0,120.9,98.4,219.3,219.3,219.3
	c120.9,0,219.3-98.4,219.3-219.3C475.3,135.1,376.9,36.7,256,36.7z"/>
<circle class="st0" cx="256" cy="256" r="168.8"/>
</svg>
